FPGA/simulation/qsim/weatherstation.msim.vcd
$comment
	File created using the following command:
		vcd file weatherstation.msim.vcd -direction
$end
$date
	Thu Sep 10 18:49:01 2020
$end
$version
	ModelSim Version 10.5b
$end
$timescale
	1ps
$end

$scope module fourInputMux_vlg_vec_tst $end
$var reg 4 ! in [3:0] $end
$var reg 2 " sel [1:0] $end
$var wire 1 # out $end

$scope module i1 $end
$var wire 1 $ gnd $end
$var wire 1 % vcc $end
$var wire 1 & unknown $end
$var tri1 1 ' devclrn $end
$var tri1 1 ( devpor $end
$var tri1 1 ) devoe $end
$var wire 1 * in[1]~input_o $end
$var wire 1 + in[3]~input_o $end
$var wire 1 , out~output_o $end
$var wire 1 - sel[0]~input_o $end
$var wire 1 . in[0]~input_o $end
$var wire 1 / in[2]~input_o $end
$var wire 1 0 sel[1]~input_o $end
$var wire 1 1 comb_7|out~0_combout $end
$upscope $end
$upscope $end
$enddefinitions $end
#0
$dumpvars
b11 !
b0 "
1#
0$
1%
x&
1'
1(
1)
1*
0+
1,
0-
1.
0/
00
11
$end
#20000
b1 "
1-
01
0,
0#
#40000
b11 "
b10 "
0-
10
#60000
b11 "
1-
#80000
b1 "
b0 "
0-
00
11
1,
1#
#100000
b1 "
1-
01
0,
0#
#120000
b11 "
b10 "
0-
10
#140000
b11 "
1-
#160000
b1 "
b0 "
0-
00
11
1,
1#
#180000
b1 "
1-
01
0,
0#
#200000
b11 "
b10 "
0-
10
#220000
b11 "
1-
#240000
b1 "
b0 "
0-
00
11
1,
1#
#260000
b1 "
1-
01
0,
0#
#280000
b11 "
b10 "
0-
10
#300000
b11 "
1-
#320000
b1 "
b0 "
0-
00
11
1,
1#
#340000
b1 "
1-
01
0,
0#
#360000
b11 "
b10 "
0-
10
#380000
b11 "
1-
#400000
b1 "
b0 "
0-
00
11
1,
1#
#420000
b1 "
1-
01
0,
0#
#440000
b11 "
b10 "
0-
10
#460000
b11 "
1-
#480000
b1 "
b0 "
0-
00
11
1,
1#
#500000
b1 "
1-
01
0,
0#
#520000
b11 "
b10 "
0-
10
#540000
b11 "
1-
#560000
b1 "
b0 "
0-
00
11
1,
1#
#580000
b1 "
1-
01
0,
0#
#600000
b11 "
b10 "
0-
10
#620000
b11 "
1-
#640000
b1 "
b0 "
0-
00
11
1,
1#
#660000
b1 "
1-
01
0,
0#
#680000
b11 "
b10 "
0-
10
#700000
b11 "
1-
#720000
b1 "
b0 "
0-
00
11
1,
1#
#740000
b1 "
1-
01
0,
0#
#760000
b11 "
b10 "
0-
10
#780000
b11 "
1-
#800000
b1 "
b0 "
0-
00
11
1,
1#
#820000
b1 "
1-
01
0,
0#
#840000
b11 "
b10 "
0-
10
#860000
b11 "
1-
#880000
b1 "
b0 "
0-
00
11
1,
1#
#900000
b1 "
1-
01
0,
0#
#920000
b11 "
b10 "
0-
10
#940000
b11 "
1-
#960000
b1 "
b0 "
0-
00
11
1,
1#
#980000
b1 "
1-
01
0,
0#
